<?xml version="1.0" encoding="UTF-8"?>
<!DOCTYPE svg PUBLIC "-//W3C//DTD SVG 1.1//EN" "http://www.w3.org/Graphics/SVG/1.1/DTD/svg11.dtd">
<!-- Creator: CorelDRAW 2018 (64-Bit) -->
<svg xmlns="http://www.w3.org/2000/svg" xml:space="preserve" width="30mm" height="66.59mm" version="1.1" style="shape-rendering:geometricPrecision; text-rendering:geometricPrecision; image-rendering:optimizeQuality; fill-rule:evenodd; clip-rule:evenodd"
viewBox="0 0 3000 6659"
 xmlns:xlink="http://www.w3.org/1999/xlink">
 <defs>
  <style type="text/css">
   <![CDATA[
    .fil0 {fill:#00A8EA}
    .fil2 {fill:#ACCE22}
    .fil1 {fill:#FEFEFE;fill-rule:nonzero}
   ]]>
  </style>
 </defs>
 <g id="Layer_x0020_1">
  <metadata id="CorelCorpID_0Corel-Layer"/>
  <g id="_904117083136">
   <g id="_904097787184">
    <path class="fil0" d="M-0 -0.08c419.6,87.74 839.38,174.74 1259.17,263.98 419.59,89.25 839.57,180.74 1259.35,271.3 362.41,531.71 482.03,998.74 481.47,1451.14 -0.38,447.72 -128.81,891.69 -515.03,1343.16 -413.22,0 -826.63,0 -1239.67,0 -413.03,0 -825.88,0 -1238.91,0 472.65,-537.34 621.33,-1065.11 636.71,-1595.51 15.56,-531.15 -97.87,-1082.18 -643.09,-1734.07z"/>
    <path class="fil1" d="M1801.94 2424.5c-93.18,-6.19 -186.92,-33.56 -282.91,-82.87 13.49,-149.61 21.93,-298.66 27.37,-448.84 40.12,41.25 79.87,68.43 119.43,82.12 39.56,13.87 95.8,24 168.17,31.12 111.56,10.87 197.99,-15.75 259.3,-80.06 61.31,-63.55 93.18,-144.17 91.31,-242.42 -2.07,-104.24 -38.44,-199.11 -104.81,-283.67 -68.43,-86.99 -157.11,-137.99 -264.73,-154.11 -91.87,-13.87 -168.55,3.75 -230.61,52.87 -63.56,50.44 -99.18,123.56 -107.81,220.11 -5.06,301.67 3.57,606.52 -46.31,903.5 -51.37,305.04 -227.04,600.15 -556.27,907.25 -156.18,0 -311.98,0 -467.97,0 337.85,-317.04 525.34,-620.96 578.21,-935.93 51.37,-305.61 54.56,-619.84 51,-930.31 -2.81,-254.99 39.56,-446.79 161.61,-585.71 114.56,-130.12 270.73,-181.87 490.47,-140.81 243.36,45.38 467.78,164.8 649.83,359.23 171.18,182.8 266.98,384.16 276.36,601.27 9,212.23 -67.69,389.22 -213.36,531.52 -150.56,146.99 -352.67,211.86 -598.28,195.74z"/>
    <path class="fil2" d="M-0 6659.08c419.6,-87.74 839.38,-174.74 1259.17,-263.98 419.59,-89.25 839.57,-180.74 1259.35,-271.3 362.41,-531.71 482.03,-998.74 481.47,-1451.14 -0.38,-447.72 -128.81,-891.69 -515.03,-1343.16 -413.22,0 -826.63,0 -1239.67,0 -413.03,0 -825.88,0 -1238.91,0 472.65,537.34 621.33,1064.93 636.71,1595.51 15.56,531.15 -97.87,1082.18 -643.09,1734.07z"/>
    <path class="fil1" d="M1801.94 4234.5c-93.18,6.19 -186.92,33.56 -282.91,82.87 13.49,149.61 21.93,298.67 27.37,448.84 40.12,-41.24 79.87,-68.43 119.43,-82.3 39.56,-13.69 95.8,-23.82 168.17,-30.94 111.56,-10.87 197.99,15.75 259.3,80.06 61.31,63.56 93.18,144.17 91.31,242.42 -2.07,104.24 -38.44,199.11 -104.81,283.67 -68.43,86.99 -157.11,137.99 -264.73,154.11 -91.87,13.87 -168.55,-3.75 -230.61,-52.87 -63.56,-50.44 -99.18,-123.56 -107.81,-220.11 -5.06,-301.67 3.57,-606.71 -46.31,-903.5 -51.37,-305.23 -227.04,-600.33 -556.27,-907.25 -156.18,0 -311.98,0 -467.97,0 337.85,317.04 525.34,620.96 578.21,935.93 51.37,305.61 54.56,619.84 51,930.31 -2.81,254.99 39.56,446.79 161.61,585.71 114.56,130.12 270.73,181.87 490.47,140.81 243.36,-45.38 467.78,-164.8 649.83,-359.23 171.18,-182.8 266.98,-384.16 276.36,-601.27 9,-212.23 -67.69,-389.22 -213.36,-531.52 -150.56,-146.99 -352.67,-211.86 -598.28,-195.74z"/>
   </g>
  </g>
 </g>
</svg>
